<svg width="24" height="24" viewBox="0 0 24 24" fill="none" xmlns="http://www.w3.org/2000/svg">
<path d="M23 0H1C0.447715 0 0 0.447715 0 1V23C0 23.5523 0.447715 24 1 24H23C23.5523 24 24 23.5523 24 23V1C24 0.447715 23.5523 0 23 0Z" fill="none"/>
<path d="M3.83333 1.91667C3.83333 1.41067 3.42358 1 2.91667 1C2.40975 1 2 1.41067 2 1.91667V22.0833C2 22.5893 2.40975 23 2.91667 23C3.42358 23 3.83333 22.5893 3.83333 22.0833V1.91667Z" fill="#1A1A1A"/>
<path d="M19.4167 12L22.1667 5.58329H15.75V2.83329C15.75 2.32729 15.3393 1.91663 14.8333 1.91663H6.58332C6.07732 1.91663 5.66666 2.32729 5.66666 2.83329V13.8333C5.66666 14.3393 6.07732 14.75 6.58332 14.75H13L8.47074 17.7695C8.58716 18.1416 8.92266 18.4166 9.33332 18.4166H22.1667L19.4167 12Z" fill="#E48040"/>
</svg>
