<svg width="28" height="28" viewBox="0 0 28 28" fill="none" xmlns="http://www.w3.org/2000/svg">
<path d="M27.2163 11.5702H26.145V11.515H14.175V16.835H21.6915C20.5949 19.9319 17.6483 22.155 14.175 22.155C9.76805 22.155 6.195 18.582 6.195 14.175C6.195 9.76804 9.76805 6.195 14.175 6.195C16.2092 6.195 18.0599 6.96241 19.4691 8.21593L23.231 4.45403C20.8556 2.24024 17.6782 0.875 14.175 0.875C6.83008 0.875 0.875 6.83007 0.875 14.175C0.875 21.5199 6.83008 27.475 14.175 27.475C21.5199 27.475 27.475 21.5199 27.475 14.175C27.475 13.2832 27.3832 12.4127 27.2163 11.5702Z" fill="#FFC107"/>
<path d="M2.40869 7.98451L6.77841 11.1891C7.96078 8.26182 10.8243 6.195 14.1752 6.195C16.2094 6.195 18.0601 6.96241 19.4693 8.21593L23.2312 4.45403C20.8558 2.24024 17.6784 0.875 14.1752 0.875C9.06667 0.875 4.63644 3.7591 2.40869 7.98451Z" fill="#FF3D00"/>
<path d="M14.1753 27.4749C17.6107 27.4749 20.7322 26.1602 23.0923 24.0223L18.9759 20.539C17.5957 21.5886 15.9092 22.1563 14.1753 22.1549C10.716 22.1549 7.77865 19.9491 6.67209 16.8708L2.33496 20.2125C4.53611 24.5197 9.00624 27.4749 14.1753 27.4749Z" fill="#4CAF50"/>
<path d="M27.2161 11.5701H26.1448V11.5149H14.1748V16.8349H21.6913C21.1668 18.3088 20.2219 19.5968 18.9734 20.5396L18.9754 20.5383L23.0918 24.0215C22.8005 24.2862 27.4748 20.8249 27.4748 14.1749C27.4748 13.2831 27.383 12.4126 27.2161 11.5701Z" fill="#1976D2"/>
</svg>
