<svg width="24" height="24" viewBox="0 0 24 24" fill="none" xmlns="http://www.w3.org/2000/svg">
<g clip-path="url(#clip0)">
<path d="M23 0H1C0.447715 0 0 0.447715 0 1V23C0 23.5523 0.447715 24 1 24H23C23.5523 24 24 23.5523 24 23V1C24 0.447715 23.5523 0 23 0Z" fill="none"/>
<path d="M23.707 22.293L19.448 18.034C21.039 16.125 22 13.673 22 11C22 4.935 17.065 0 11 0C4.935 0 0 4.935 0 11C0 17.065 4.935 22 11 22C13.673 22 16.125 21.039 18.034 19.448L22.293 23.707C22.488 23.902 22.744 24 23 24C23.256 24 23.512 23.902 23.707 23.707C24.098 23.316 24.098 22.684 23.707 22.293ZM2 11C2 6.038 6.037 2 11 2C15.963 2 20 6.038 20 11C20 15.962 15.963 20 11 20C6.037 20 2 15.962 2 11Z" fill="#B88D68"/>
<path d="M11 11C12.6569 11 14 9.65685 14 8C14 6.34315 12.6569 5 11 5C9.34315 5 8 6.34315 8 8C8 9.65685 9.34315 11 11 11Z" fill="#F1BB31"/>
<path d="M16 16H6V14.916C6 14.262 6.315 13.651 6.851 13.277C7.67 12.705 9.071 12 11 12C12.929 12 14.33 12.705 15.149 13.277C15.685 13.652 16 14.263 16 14.916V16Z" fill="#F1BB31"/>
</g>
<defs>
<clipPath id="clip0">
<rect width="24" height="24" fill="none"/>
</clipPath>
</defs>
</svg>
