<svg width="16" height="16" viewBox="0 0 16 16" fill="none" xmlns="http://www.w3.org/2000/svg">
<path d="M0.5 15.5H15.5" stroke="#4D4D4D" stroke-linecap="round" stroke-linejoin="round"/>
<path d="M0.5 6.5L8 0.5L15.5 6.5" stroke="#4D4D4D" stroke-linecap="round" stroke-linejoin="round"/>
<path d="M2.5 7.5V15.5" stroke="#4D4D4D" stroke-linecap="round" stroke-linejoin="round"/>
<path d="M13.5 7.5V15.5" stroke="#4D4D4D" stroke-linecap="round" stroke-linejoin="round"/>
<path d="M5.5 15.5V11C5.5 10.337 5.76339 9.70107 6.23223 9.23223C6.70107 8.76339 7.33696 8.5 8 8.5V8.5C8.66304 8.5 9.29893 8.76339 9.76777 9.23223C10.2366 9.70107 10.5 10.337 10.5 11V15.5" stroke="#4D4D4D" stroke-linecap="round" stroke-linejoin="round"/>
</svg>
