<svg width="24" height="24" viewBox="0 0 24 24" fill="none" xmlns="http://www.w3.org/2000/svg">
<g clip-path="url(#clip0)">
<path d="M14.2706 8.14253C14.2139 7.88052 14.0676 7.6448 13.8554 7.47372C13.6432 7.30264 13.3775 7.20628 13.1017 7.20029C12.8258 7.19431 12.556 7.27907 12.3361 7.44077C12.1162 7.60248 11.9592 7.83162 11.8906 8.09091L9.65055 12.8505C9.62599 12.9029 9.58811 12.9484 9.54048 12.9826C9.49285 13.0169 9.43703 13.0389 9.37825 13.0465C9.31947 13.0541 9.25967 13.0471 9.20444 13.0261C9.14922 13.0051 9.1004 12.9709 9.06255 12.9266L7.53375 11.1417C7.36969 10.9261 7.15178 10.7545 6.90051 10.6431C6.64925 10.5316 6.37289 10.4841 6.09746 10.5049C5.82203 10.5257 5.55658 10.6141 5.32609 10.7619C5.0956 10.9096 4.90766 11.1119 4.77995 11.3496L1.29954 16.9717C1.23588 17.0748 1.20155 17.1924 1.20005 17.3126C1.19855 17.4327 1.22993 17.5511 1.29099 17.6557C1.35206 17.7602 1.44062 17.8472 1.54763 17.9077C1.65465 17.9682 1.77629 18 1.90014 18H17.3002C17.4146 18 17.5272 17.9727 17.6283 17.9207C17.7294 17.8686 17.8157 17.7933 17.8798 17.7013C17.9439 17.6094 17.9838 17.5036 17.996 17.3932C18.0082 17.2828 17.9923 17.1712 17.9498 17.0682L14.2706 8.14253Z" fill="#4D4D4D"/>
<path d="M5.964 7.5C7.06857 7.5 7.964 6.60457 7.964 5.5C7.964 4.39543 7.06857 3.5 5.964 3.5C4.85944 3.5 3.964 4.39543 3.964 5.5C3.964 6.60457 4.85944 7.5 5.964 7.5Z" fill="#4D4D4D"/>
<path d="M17 19C17.5304 19 18.0391 18.7893 18.4142 18.4142C18.7893 18.0391 19 17.5304 19 17V2C19 1.46957 18.7893 0.960859 18.4142 0.585786C18.0391 0.210714 17.5304 0 17 0L2 0C1.46957 0 0.960859 0.210714 0.585786 0.585786C0.210714 0.960859 0 1.46957 0 2L0 17C0 17.5304 0.210714 18.0391 0.585786 18.4142C0.960859 18.7893 1.46957 19 2 19H17ZM2 2.5C2 2.36739 2.05268 2.24021 2.14645 2.14645C2.24021 2.05268 2.36739 2 2.5 2H16.5C16.6326 2 16.7598 2.05268 16.8536 2.14645C16.9473 2.24021 17 2.36739 17 2.5V16.5C17 16.6326 16.9473 16.7598 16.8536 16.8536C16.7598 16.9473 16.6326 17 16.5 17H2.5C2.36739 17 2.24021 16.9473 2.14645 16.8536C2.05268 16.7598 2 16.6326 2 16.5V2.5Z" fill="#4D4D4D"/>
<path d="M23.992 9.235C24.0157 8.97341 23.9875 8.70971 23.9093 8.45898C23.831 8.20825 23.7041 7.97539 23.5359 7.77369C23.3676 7.572 23.1613 7.40543 22.9286 7.28349C22.696 7.16155 22.4416 7.08663 22.18 7.063L21.18 6.972C20.9158 6.94813 20.653 7.03018 20.4494 7.20008C20.2457 7.36999 20.1179 7.61385 20.094 7.878C20.0701 8.14216 20.1522 8.40498 20.3221 8.60864C20.492 8.81231 20.7358 8.94013 21 8.964L21.5 9.008C21.5655 9.0139 21.6292 9.03267 21.6874 9.06322C21.7456 9.09376 21.7973 9.1355 21.8393 9.18603C21.8814 9.23656 21.9131 9.2949 21.9326 9.3577C21.9521 9.42049 21.9591 9.48652 21.953 9.552L20.863 21.5C20.8508 21.6319 20.7868 21.7536 20.685 21.8383C20.5832 21.9231 20.4519 21.964 20.32 21.952L6.877 20.728C6.74384 20.7116 6.60873 20.7222 6.47973 20.7591C6.35073 20.796 6.23048 20.8585 6.12613 20.9428C6.02178 21.0271 5.93548 21.1316 5.87235 21.25C5.80922 21.3684 5.77057 21.4983 5.75869 21.632C5.74681 21.7656 5.76194 21.9003 5.80319 22.0279C5.84444 22.1556 5.91097 22.2737 5.9988 22.3751C6.08663 22.4765 6.19397 22.5593 6.31444 22.6183C6.43491 22.6774 6.56603 22.7117 6.7 22.719L20.641 23.993C20.9027 24.0169 21.1665 23.9891 21.4174 23.911C21.6683 23.8329 21.9014 23.7062 22.1033 23.538C22.3052 23.3698 22.4719 23.1635 22.5941 22.9308C22.7162 22.6981 22.7913 22.4437 22.815 22.182L23.992 9.235Z" fill="#4D4D4D"/>
</g>
<defs>
<clipPath id="clip0">
<rect width="24" height="24" fill="white"/>
</clipPath>
</defs>
</svg>
